<svg xmlns="http://www.w3.org/2000/svg" width="1888.554" height="877.361" viewBox="0 0 1888.554 877.361">
  
<g transform="translate(100 0)">

<g class="kcloud">
  <path id="Контур_1" data-name="Контур 1" d="M13073.367,13134.378a11.812,11.812,0,0,1-7.558-10.783,11.182,11.182,0,0,1,16.83-9.665,13.419,13.419,0,0,1,17.755-12.431,19.541,19.541,0,1,1,36.553-9.61,19.662,19.662,0,0,1-.3,3.3,16.476,16.476,0,0,1,26.626,11.433,29.684,29.684,0,0,1,41.271.965,22.589,22.589,0,1,1,42.007,13.01,16.456,16.456,0,0,1,23.367,13.781Z" transform="translate(-11625.972 -13021.055)" fill="none" stroke="#fff" stroke-linecap="round" stroke-linejoin="round" stroke-width="1"/>
</g>
<g class="kcloud">
  <g transform="translate(0 35)">
  <path id="Контур_2" data-name="Контур 2" d="M11626.472,13062.3a8.8,8.8,0,0,0,8.8,8.8l.189-.062v.1h104.49v-.848a5.446,5.446,0,0,0,6.927-8.238,8.306,8.306,0,0,0-11.028-10.845,10.828,10.828,0,0,0,.082-1.29,10.933,10.933,0,0,0-15.086-10.12,10.773,10.773,0,0,0-17.658-5.06,15.108,15.108,0,0,0-30,3.629,10.785,10.785,0,0,0-16.584,9.105c0,.35.02.692.052,1.032a10.776,10.776,0,0,0-15.16,7.584,8.8,8.8,0,0,0-15.028,6.215Z" transform="translate(-11625.972 -13021.055)" fill="none" stroke="#fff" stroke-linecap="round" stroke-linejoin="round" stroke-width="1"/>
</g>
</g>
<g class="kcloud">
  <path id="Контур_3" data-name="Контур 3" d="M11678.572,13313.9h210.312s7.857.125,7.857-7.919-10.745-6.916-10.745-6.916a12.215,12.215,0,1,0-5.291-23.211,16.9,16.9,0,0,0-32.186-10.294,19.725,19.725,0,0,0-34.77,12.762,19.9,19.9,0,0,0,.2,2.768,12.2,12.2,0,0,0-16.413,2.528,16.861,16.861,0,0,0-27.8-8.525,26.164,26.164,0,0,0,.138-2.668,25.626,25.626,0,1,0-51.253,0c0,.5.019,1,.047,1.5a19.73,19.73,0,0,0-35.4,16.487,12.215,12.215,0,1,0-4.691,23.493" transform="translate(-11625.972 -13021.055)" fill="none" stroke="#fff" stroke-linecap="round" stroke-linejoin="round" stroke-width="1"/>
</g>
<g class="kcloud">
  <path id="Контур_770" data-name="Контур 770" d="M12033.719,13477a5.143,5.143,0,0,0,.021-10.286,6.118,6.118,0,0,0-6.7-10.061c0-.112.017-.222.017-.334a8.486,8.486,0,1,0-16.972,0c0,.244.016.482.036.722a11.976,11.976,0,0,0-20.042,8.854,12.07,12.07,0,0,0,.134,1.793,6.067,6.067,0,0,0-5.373-1.659,8.436,8.436,0,0,0,.911-3.81,8.534,8.534,0,0,0-8.543-8.485,9.049,9.049,0,0,0-6.038,2.467v-.01a15.737,15.737,0,1,0-31.314,2.105,11.971,11.971,0,0,0-18.623,9.958,12.091,12.091,0,0,0,.269,2.52,8.485,8.485,0,1,0-6,14.486l112.994.124s1.917-7.649-19.046-8.347l24.267-.038" transform="translate(-11625.972 -13021.055)" fill="none" stroke="#fff" stroke-linecap="round" stroke-linejoin="round" stroke-width="1"/>
</g>
<g class="kcloud">
  <path id="Контур_771" data-name="Контур 771" d="M13306.878,13543.146h-123.064s-4.6.073-4.6-4.635,6.287-4.047,6.287-4.047a7.147,7.147,0,1,1,3.1-13.582,9.887,9.887,0,0,1,18.834-6.022,11.538,11.538,0,0,1,20.23,9.087,7.139,7.139,0,0,1,9.6,1.479,9.865,9.865,0,0,1,16.269-4.988,15.279,15.279,0,0,1-.081-1.562,15,15,0,1,1,29.991,0c0,.294-.012.585-.027.875a11.545,11.545,0,0,1,20.715,9.647,7.148,7.148,0,1,1,2.746,13.747" transform="translate(-11625.972 -13021.055)" fill="none" stroke="#fff" stroke-linecap="round" stroke-linejoin="round" stroke-width="1"/>
</g>
<g class="kcloud">
  <path id="Контур_773" data-name="Контур 773" d="M13141.31,13362.473a8.768,8.768,0,0,0-6.228,2.585,10.78,10.78,0,0,0-15.161-7.584c.033-.34.053-.684.053-1.031a10.785,10.785,0,0,0-16.584-9.107,15.108,15.108,0,0,0-30-3.629,10.774,10.774,0,0,0-17.658,5.061,10.936,10.936,0,0,0-15.087,10.12,10.784,10.784,0,0,0,.083,1.289,8.312,8.312,0,0,0-11.028,10.847,5.445,5.445,0,0,0,6.927,8.237v.849h104.49v-.1l.189.063a8.8,8.8,0,1,0,0-17.6Z" transform="translate(-11625.972 -13021.055)" fill="none" stroke="#fff" stroke-linecap="round" stroke-linejoin="round" stroke-width="1"/>
</g>

<g id="helicopter">
  <g id="Сгруппировать_1806" data-name="Сгруппировать 1806" transform="translate(-11625.972 -13015.055)">
    <g id="Сгруппировать_1805" data-name="Сгруппировать 1805">
      <path id="Контур_1325" data-name="Контур 1325" d="M11949,13095.047l2.49,7.471a4.3,4.3,0,0,0,4.08,2.94h34.649c4.261,0,7.392-2.582,7.411-6.451a11.691,11.691,0,0,0-.74-4.12l-1.41-2.957-8.951-21.683a6.451,6.451,0,0,0-5.735-3.5h-25.079a4.3,4.3,0,0,0-4.136,3.12l-2.52,8.813a4.3,4.3,0,0,1-4.135,3.12H11920.9l-4.993-10.753h-4.3v17.2l33.963,3.9A4.3,4.3,0,0,1,11949,13095.047Z" fill="none" stroke="#fff" stroke-linecap="round" stroke-linejoin="round" stroke-width="1"/>
      <path id="Контур_1326" data-name="Контур 1326" d="M11993.327,13090.4h-12.9l-4.3-15.054h10.753" fill="none" stroke="#fff" stroke-linecap="round" stroke-linejoin="round" stroke-width="1"/>
      <line id="Линия_169" data-name="Линия 169" y1="12.903" transform="translate(11968.21 13053.846)" fill="none" stroke="#fff" stroke-linecap="round" stroke-linejoin="round" stroke-width="1"/>
      <line id="Линия_170" data-name="Линия 170" x2="43.011" transform="translate(11946.016 13053.846)" fill="none" stroke="#fff" stroke-linecap="round" stroke-linejoin="round" stroke-width="1"/>
      <path id="Контур_1327" data-name="Контур 1327" d="M11956.768,13114.061h30.478a14.684,14.684,0,0,0,10.383-4.3h0" fill="none" stroke="#fff" stroke-linecap="round" stroke-linejoin="round" stroke-width="1"/>
    </g>
    <path id="Контур_1328" data-name="Контур 1328" d="M11973.973,13090.4h-15.054v-15.054h10.753Z" fill="none" stroke="#fff" stroke-linecap="round" stroke-linejoin="round" stroke-width="1"/>
  </g>
</g>
</g>
</svg>
